{{- $.Scratch.Add "index" slice -}}
{{- range .Site.RegularPages -}}
{{- $.Scratch.Add "index" (dict "title" .Title "tags" .Params.tags "contents" .Plain "permalink" .Permalink) -}}
{{- end -}}
{{- $.Scratch.Get "index" | jsonify -}}
